<svg id="icon-learngood-1" xmlns="http://www.w3.org/2000/svg" xmlns:xlink="http://www.w3.org/1999/xlink" width="205.049" height="158.17" viewBox="0 0 205.049 158.17">
  <defs>
    <clipPath id="clip-path">
      <rect id="Rectangle_151" data-name="Rectangle 151" width="205.049" height="158.17" fill="none"/>
    </clipPath>
  </defs>
  <g id="Group_137" data-name="Group 137" transform="translate(0 0)" clip-path="url(#clip-path)">
    <path id="Path_164" data-name="Path 164" d="M200.7,50.957c-36.529-9.951-60.82-17.867-82.061-45.267A8.963,8.963,0,0,0,105.76,4.438L6.19,78.995A9.03,9.03,0,0,0,5.058,91.568c23.181,28.382,57.792,55.543,97.348,65.225a9.8,9.8,0,0,0,9.431-2.873l90.688-96.551a3.89,3.89,0,0,0-1.82-6.411" transform="translate(1.472 1.107)" fill="#435fbe"/>
    <path id="Path_165" data-name="Path 165" d="M86.954,89.9a50.458,50.458,0,0,0,5.117-6.236c14.6-20.8,21.909-59.389,42.316-73.273" transform="translate(42.307 5.054)" fill="none" stroke="#ffe346" stroke-width="7.67"/>
    <path id="Path_166" data-name="Path 166" d="M9.878,82.165C21.587,66.235,45.818,43.753,62.543,53.8,76.193,62,83.783,72.813,92.964,76.473" transform="translate(4.806 24.961)" fill="none" stroke="#ffe346" stroke-width="7.67"/>
    <path id="Path_167" data-name="Path 167" d="M17.34,83.01a8.67,8.67,0,1,1-8.67-8.669,8.669,8.669,0,0,1,8.67,8.669" transform="translate(0 36.17)" fill="#ffe346"/>
    <path id="Path_168" data-name="Path 168" d="M87.876,71.465a8.67,8.67,0,1,1-8.67-8.669,8.669,8.669,0,0,1,8.67,8.669" transform="translate(34.319 30.553)" fill="#ffe346"/>
    <path id="Path_169" data-name="Path 169" d="M138.675,8.669A8.67,8.67,0,1,1,130.006,0a8.669,8.669,0,0,1,8.67,8.669" transform="translate(59.034 0)" fill="#ffe346"/>
  </g>
</svg>
