<svg xmlns="http://www.w3.org/2000/svg" width="74.3" height="74.304" viewBox="0 0 74.3 74.304">
  <path id="Icon_awesome-comment-alt" data-name="Icon awesome-comment-alt" d="M65.012,0H9.287A9.3,9.3,0,0,0,0,9.287V51.081a9.3,9.3,0,0,0,9.287,9.287H23.219v12.19a1.745,1.745,0,0,0,2.772,1.408l18.125-13.6h20.9A9.3,9.3,0,0,0,74.3,51.081V9.287A9.3,9.3,0,0,0,65.012,0Z" fill="#ffe346"/>
</svg>
