<svg xmlns="http://www.w3.org/2000/svg" width="667.05" height="681" viewBox="0 0 667.05 681">
  <rect id="Rectangle_43" data-name="Rectangle 43" width="667.05" height="681" rx="20" fill="#435fbe"/>
</svg>
